<?xml version="1.0" encoding="UTF-8"?>
<svg width="20px" height="20px" viewBox="0 0 20 20" version="1.1" xmlns="http://www.w3.org/2000/svg" xmlns:xlink="http://www.w3.org/1999/xlink">
    <!-- Generator: Sketch 52.5 (67469) - http://www.bohemiancoding.com/sketch -->
    <title>gift</title>
    <desc>Created with Sketch.</desc>
    <g id="Page-1" stroke="none" stroke-width="1" fill="none" fill-rule="evenodd">
        <g id="Select-A-Delivery-Address-Copy" transform="translate(-482.000000, -813.000000)">
            <g id="gift" transform="translate(482.000000, 813.000000)">
                <rect id="Rectangle" fill="#CB465F" x="0.350877193" y="4.56210526" width="19.2982456" height="4.21052632"></rect>
                <rect id="Rectangle" fill="#EF4D4D" x="2.10526316" y="8.77263158" width="16.1403509" height="10.5263158"></rect>
                <path d="M19.6491228,4.21122807 L14.6459649,4.21122807 C14.9319298,3.80245614 15.0877193,3.31684211 15.0877193,2.80526316 C15.0877193,2.14736842 14.8329825,1.53052632 14.3708772,1.06842105 C13.4133333,0.110877193 11.8550877,0.110877193 10.8975439,1.06842105 L9.90491228,2.06105263 L8.91263158,1.06842105 C7.95508772,0.110877193 6.39684211,0.110877193 5.43929825,1.06842105 C4.97719298,1.53052632 4.72245614,2.14736842 4.72245614,2.80526316 C4.72245614,3.31684211 4.87824561,3.80245614 5.16421053,4.21122807 L0.350877193,4.21122807 C0.157192982,4.21122807 0,4.36807018 0,4.56210526 C0,4.75614035 0.157192982,4.91298246 0.350877193,4.91298246 L9.8245614,4.91298246 L9.8245614,13.3340351 L2.10526316,13.3340351 C1.91157895,13.3340351 1.75438596,13.4908772 1.75438596,13.6849123 C1.75438596,13.8789474 1.91157895,14.0357895 2.10526316,14.0357895 L9.8245614,14.0357895 L9.8245614,19.2989474 C9.8245614,19.4929825 9.98175439,19.6498246 10.1754386,19.6498246 C10.3691228,19.6498246 10.5263158,19.4929825 10.5263158,19.2989474 L10.5263158,14.0357895 L18.245614,14.0357895 C18.4392982,14.0357895 18.5964912,13.8789474 18.5964912,13.6849123 C18.5964912,13.4908772 18.4392982,13.3340351 18.245614,13.3340351 L10.5263158,13.3340351 L10.5263158,4.91298246 L19.6491228,4.91298246 C19.842807,4.91298246 20,4.75614035 20,4.56210526 C20,4.36807018 19.842807,4.21122807 19.6491228,4.21122807 Z M11.3936842,1.5645614 C12.0778947,0.880701754 13.1908772,0.880701754 13.8747368,1.5645614 C14.2042105,1.89438596 14.3859649,2.33473684 14.3859649,2.80526316 C14.3859649,3.2754386 14.2042105,3.71614035 13.8747368,4.04561404 L13.7091228,4.21122807 L8.74701754,4.21122807 L10.1526316,2.80561404 L10.1529825,2.80526316 L10.1533333,2.80491228 L11.3936842,1.5645614 Z M5.9354386,4.04561404 C5.60596491,3.71614035 5.42421053,3.2754386 5.42421053,2.80526316 C5.42421053,2.33473684 5.60596491,1.89438596 5.9354386,1.5645614 C6.61964912,0.880701754 7.73263158,0.880701754 8.41649123,1.5645614 L9.40877193,2.55719298 L8.16807018,3.79789474 C8.05192982,3.91403509 7.94982456,4.05578947 7.85298246,4.21157895 L6.10070175,4.21157895 L5.9354386,4.04561404 Z" id="Shape" fill="#EBBA16" fill-rule="nonzero"></path>
            </g>
        </g>
    </g>
</svg>