<?xml version="1.0" encoding="UTF-8"?>
<svg width="60px" height="36px" viewBox="0 0 60 36" version="1.1" xmlns="http://www.w3.org/2000/svg" xmlns:xlink="http://www.w3.org/1999/xlink">
    <!-- Generator: Sketch 52.5 (67469) - http://www.bohemiancoding.com/sketch -->
    <title>Maestro-dark Copy 2</title>
    <desc>Created with Sketch.</desc>
    <g id="Page-1" stroke="none" stroke-width="1" fill="none" fill-rule="evenodd">
        <g id="Select-A-Delivery-Address-Copy-4" transform="translate(-864.000000, -516.000000)">
            <g id="Maestro-dark-Copy-2" transform="translate(864.000000, 516.000000)">
                <rect id="Rectangle" fill="#000066" x="0" y="0" width="60" height="36" rx="4"></rect>
                <path d="M50.1938939,17.9902398 C50.1938939,24.6234416 44.8383807,30 38.2303989,30 C31.6237408,30 26.2674712,24.6234416 26.2674712,17.9902398 C26.2674712,11.3568482 31.6237408,5.98010004 38.2303989,5.98010004 C44.8383807,5.98010004 50.1938939,11.3568482 50.1938939,17.9902398" id="Fill-356" fill="#CC0000"></path>
                <path d="M28.9889054,25.6170269 C28.658582,25.2148478 28.3543516,24.7898932 28.077727,24.34501 L32.3176658,24.34501 C32.572168,23.9373268 32.8019007,23.512562 33.0070529,23.0731829 L27.388718,23.0731829 C27.1971796,22.6617038 27.0270072,22.2373186 26.8821716,21.8017354 L33.5126539,21.8017354 C33.9119917,20.6041187 34.1277325,19.3229916 34.1277325,17.9902398 C34.1277325,17.117555 34.0350831,16.266507 33.8592383,15.4469652 L26.5365326,15.4469652 C26.629182,15.0136596 26.7460337,14.5896539 26.8836843,14.1751381 L33.5118976,14.1751381 C33.3664948,13.7395549 33.1972678,13.3153595 33.0059185,12.9038804 L27.3898525,12.9038804 C27.5950047,12.4645013 27.8253046,12.0404956 28.0790505,11.6318635 L32.3163422,11.6318635 C32.0399067,11.1881191 31.73492,10.7639236 31.4051638,10.3611752 L28.9904181,10.3611752 C29.361961,9.9085103 29.7656477,9.48355569 30.1978855,9.09010731 C28.0745126,7.15740842 25.2562693,5.98010004 22.1649938,5.98010004 C15.5573903,5.98010004 10.2011208,11.3568482 10.2011208,17.9902398 C10.2011208,24.6234416 15.5573903,30 22.1649938,30 C25.2564584,30 28.0748908,28.8226916 30.1978855,26.8907519 C30.6306905,26.4965443 31.0349444,26.0706408 31.4064874,25.6170269 L28.9889054,25.6170269" id="Fill-357" fill="#0066CC"></path>
                <path d="M30.027335,21.2357619 C29.5160616,21.3716562 29.0216163,21.4380851 28.4989981,21.4369463 C26.8314981,21.4354279 25.9630518,20.6730149 25.9630518,19.2149973 C25.9630518,17.5115728 27.0686049,16.2587253 28.569336,16.2587253 C29.7968459,16.2587253 30.5803951,16.9611626 30.5803951,18.0617931 C30.5803951,18.4269618 30.5274526,18.7828305 30.3975544,19.2857915 L27.4322065,19.2857915 C27.3266996,19.9979084 27.8445908,20.3105034 28.7262727,20.3105034 C29.2543743,20.3105034 29.7318023,20.2152255 30.2608492,20.0017043 L30.027335,21.2357619 L30.027335,21.2357619 Z M29.2299829,18.281198 C29.2299829,18.1737731 29.394861,17.4092724 28.5366251,17.3927601 C28.0627896,17.3927601 27.7230121,17.7089612 27.5855507,18.281198 L29.2299829,18.281198 L29.2299829,18.281198 Z" id="Fill-359" fill="#000066"></path>
                <path d="M31.0319191,17.947156 C31.0319191,18.5763318 31.3847431,19.0111558 32.1870113,19.334759 C32.800199,19.5868089 32.89663,19.6598806 32.89663,19.8851692 C32.89663,20.1973846 32.6258669,20.3404913 32.024213,20.3366953 C31.5725,20.3334688 31.1601156,20.278238 30.6736118,20.142913 L30.4582492,21.2906131 C30.8908651,21.3913951 31.497246,21.4244197 32.0348015,21.4369463 C33.6361234,21.4369463 34.3754278,20.9106403 34.3754278,19.7729994 C34.3754278,19.0889724 34.0670377,18.6867934 33.3065563,18.3869147 C32.670868,18.1318281 32.5963703,18.0769769 32.5963703,17.8459944 C32.5963703,17.5749648 32.8482254,17.4379317 33.3392672,17.4379317 C33.6370688,17.4379317 34.0445371,17.4652624 34.4313956,17.5123319 L34.6482708,16.3583685 C34.2542272,16.3035173 33.6565441,16.2594845 33.3103379,16.2594845 C31.6139086,16.2594845 31.0268139,17.026073 31.0319191,17.947156" id="Fill-360" fill="#000066"></path>
                <path d="M25.1501952,21.3547643 L23.9062352,21.3547643 L23.9359209,20.8316849 C23.5566256,21.2443027 23.0512137,21.4365667 22.3656082,21.4365667 C21.5540751,21.4365667 20.9981787,20.8795136 20.9981787,20.0783821 C20.9981787,18.8606471 21.9645686,18.1582098 23.6262072,18.1582098 C23.7969468,18.1582098 24.0142001,18.171116 24.237315,18.1963589 C24.2834506,18.0333236 24.2959299,17.9630989 24.2959299,17.8746537 C24.2959299,17.5413708 24.0344317,17.4185724 23.3352124,17.4185724 C22.6458253,17.4212296 22.1806875,17.5239095 21.749017,17.6402549 L21.9615433,16.523112 C22.7080328,16.3325562 23.1966165,16.2587253 23.7496767,16.2587253 C25.0363688,16.2587253 25.7159237,16.7654823 25.7159237,17.7171225 C25.7267013,17.9712602 25.6387789,18.4810539 25.594345,18.7042547 C25.5440496,19.0286171 25.187444,20.9106403 25.1501952,21.3547643 L25.1501952,21.3547643 Z M24.0582559,19.1330052 C23.9007519,19.1174419 23.8321157,19.112697 23.7241508,19.112697 C22.8757471,19.112697 22.4455892,19.3662652 22.4455892,19.8667589 C22.4455892,20.1810621 22.6554684,20.3775016 22.9827666,20.3775016 C23.5923618,20.3775016 24.0325409,19.8656201 24.0582559,19.1330052 L24.0582559,19.1330052 Z" id="Fill-361" fill="#000066"></path>
                <path d="M36.9964603,21.275809 C36.5884248,21.3879788 36.2702024,21.4369463 35.9262652,21.4369463 C35.1642712,21.4369463 34.7481052,21.0459653 34.7481052,20.3497913 C34.724092,20.1584763 34.9103362,19.2747833 34.9526902,19.0286171 C34.9946661,18.7816917 35.6547458,15.1820092 35.6547458,15.1820092 L37.1352453,15.1820092 L36.9113741,16.3731727 L37.670721,16.3731727 L37.4644342,17.5884404 L36.7016839,17.5884404 C36.7016839,17.5884404 36.283249,19.6984093 36.283249,19.8597364 C36.283249,20.1153925 36.4375386,20.2266133 36.7920643,20.2266133 C36.9614804,20.2266133 37.0925131,20.2106704 37.1936711,20.1803029 L36.9964603,21.275809" id="Fill-362" fill="#000066"></path>
                <path d="M43.6118161,16.2587253 C42.5266837,16.2587253 41.6788472,16.7075943 41.1862928,17.4561521 L41.6138036,16.3454624 C40.8260946,16.0552634 40.3182247,16.4695894 39.8593266,17.0583385 C39.8593266,17.0583385 39.7823708,17.1560837 39.7056042,17.2454779 L39.7056042,16.3726033 L38.3154851,16.3726033 C38.127161,17.9131824 37.7941905,19.4755881 37.5338267,21.0195835 L37.470863,21.3553337 L38.9662998,21.3553337 C39.1082992,20.5718533 39.2247727,19.9360347 39.3408681,19.4288981 C39.6585232,18.037689 40.1932425,17.6125446 40.9958888,17.8008228 C40.81059,18.2003447 40.7090539,18.6634484 40.7090539,19.1757095 C40.7090539,20.4194466 41.3814238,21.4369463 43.0519491,21.4369463 C44.7374117,21.4369463 45.9579257,20.5331348 45.9579257,18.4721334 C45.9579257,17.2291554 45.1445018,16.2587253 43.6118161,16.2587253 L43.6118161,16.2587253 Z M43.1765531,20.2281317 C42.6484515,20.2362929 42.3281493,19.7914097 42.3281493,19.1256031 C42.3281493,18.3368084 42.795367,17.4453337 43.5462052,17.4453337 C44.1520188,17.4453337 44.35944,17.9276069 44.35944,18.4413864 C44.35944,19.5634639 43.9012982,20.2281317 43.1765531,20.2281317 L43.1765531,20.2281317 Z" id="Fill-363" fill="#000066"></path>
                <polyline id="Fill-364" fill="#000066" points="20.3014174 21.3553337 18.8120312 21.3553337 19.6971165 16.6741901 17.659397 21.3553337 16.3017998 21.3553337 16.0537263 16.7017106 15.1658048 21.3553337 13.8146362 21.3553337 14.9653795 15.2662788 17.2927702 15.2662788 17.4865776 18.6607912 18.9610265 15.2662788 21.4752286 15.2662788 20.3014174 21.3553337"></polyline>
                <path d="M30.4009578,20.860534 C29.8900626,20.9966181 29.3954283,21.063047 28.8729991,21.0619082 C27.2054991,21.0603898 26.3370528,20.297787 26.3370528,18.8399592 C26.3370528,17.1365347 27.4424168,15.8836872 28.9429589,15.8836872 C30.1706579,15.8836872 30.9543961,16.5861245 30.9543961,17.6865652 C30.9543961,18.0517339 30.9012646,18.4068434 30.7715554,18.9107534 L27.8063966,18.9107534 C27.7007007,19.6221111 28.2182137,19.9352755 29.0998956,19.9352755 C29.6279972,19.9352755 30.1058033,19.8399976 30.6346612,19.6260968 L30.4009578,20.860534 L30.4009578,20.860534 Z M29.6036058,17.9061599 C29.6036058,17.7985452 29.7684839,17.0342343 28.9106261,17.0175322 C28.4367906,17.0175322 28.0970132,17.3337333 27.9591736,17.9061599 L29.6036058,17.9061599 L29.6036058,17.9061599 Z" id="Fill-366" fill="#FFFFFF"></path>
                <path d="M31.4059201,17.5717383 C31.4059201,18.2011039 31.7585551,18.6355483 32.5606341,18.9595311 C33.1742,19.2117708 33.2704419,19.2846527 33.2704419,19.5093719 C33.2704419,19.8221567 32.9994897,19.9652634 32.3984031,19.9616572 C31.9461228,19.9582409 31.5337385,19.9030101 31.0476128,19.7676851 L30.831872,20.9150056 C31.2646771,21.0161672 31.8714361,21.0491918 32.4084244,21.0619082 C34.0097463,21.0619082 34.7494288,20.5354124 34.7494288,19.3973919 C34.7494288,18.7137445 34.4408496,18.3111859 33.6803682,18.0116868 C33.0446799,17.75679 32.9699932,17.7011796 32.9699932,17.4709563 C32.9699932,17.1999267 33.2222264,17.0623242 33.7130791,17.0623242 C34.0108808,17.0623242 34.41816,17.0902243 34.8052075,17.1372938 L35.0220827,15.9833304 C34.6280392,15.92772 34.0303561,15.8842566 33.684528,15.8842566 C31.9877205,15.8842566 31.4006259,16.6504655 31.4059201,17.5717383" id="Fill-367" fill="#FFFFFF"></path>
                <path d="M25.5241962,20.9795364 L24.2798581,20.9795364 L24.3099219,20.456457 C23.9304375,20.8686952 23.4254038,21.0607694 22.7396092,21.0607694 C21.9282652,21.0607694 21.3718016,20.5039061 21.3718016,19.7027746 C21.3718016,18.4854192 22.3383806,17.7829819 24.0000191,17.7829819 C24.1707587,17.7829819 24.387823,17.7960779 24.611316,17.8203718 C24.6574517,17.6577162 24.6697419,17.5880608 24.6697419,17.4994258 C24.6697419,17.1653837 24.4084328,17.0431547 23.7094025,17.0431547 C23.0198263,17.0460017 22.5546885,17.1486816 22.1232071,17.2652168 L22.3351662,16.1478841 C23.0818447,15.9573283 23.5702394,15.8836872 24.1236777,15.8836872 C25.4103698,15.8836872 26.0897357,16.3898748 26.0897357,17.3418946 C26.1008914,17.596222 26.0124018,18.1050668 25.9685351,18.3290268 C25.9176725,18.6533892 25.561256,20.5354124 25.5241962,20.9795364 L25.5241962,20.9795364 Z M24.4320678,18.7579671 C24.2747529,18.7416446 24.2059277,18.7374691 24.0977737,18.7374691 C23.2497481,18.7374691 22.8194011,18.9906578 22.8194011,19.4907718 C22.8194011,19.8056444 23.0296585,20.0024635 23.3563894,20.0024635 C23.9663628,20.0024635 24.406542,19.4900126 24.4320678,18.7579671 L24.4320678,18.7579671 Z" id="Fill-368" fill="#FFFFFF"></path>
                <path d="M37.3702722,20.9005811 C36.9620476,21.0129406 36.6440144,21.0619082 36.2998881,21.0619082 C35.5378941,21.0619082 35.1221063,20.6707374 35.1221063,19.9745634 C35.097904,19.7832484 35.2841482,18.8995554 35.3263131,18.6533892 C35.3686671,18.4064638 36.0287468,14.8067813 36.0287468,14.8067813 L37.5090572,14.8067813 L37.2853751,15.9975652 L38.044722,15.9975652 L37.8382462,17.2132125 L37.0756849,17.2132125 C37.0756849,17.2132125 36.6568719,19.3231814 36.6568719,19.4837494 C36.6568719,19.7403544 36.8113505,19.850816 37.1658763,19.850816 C37.3352923,19.850816 37.466136,19.8356323 37.5678612,19.8048852 L37.3702722,20.9005811" id="Fill-369" fill="#FFFFFF"></path>
                <path d="M44.7336301,18.0653993 C44.7336301,19.1884258 44.2749211,19.8530936 43.5501759,19.8530936 C43.0220744,19.8606854 42.7019613,19.4163716 42.7019613,18.750565 C42.7019613,17.9617703 43.1691789,17.0701058 43.9198281,17.0701058 C44.5258308,17.0701058 44.7336301,17.552379 44.7336301,18.0653993 L44.7336301,18.0653993 Z M46.3317377,18.0969055 C46.3317377,16.8541173 45.5181247,15.8836872 43.9858172,15.8836872 C42.2230206,15.8836872 41.0828658,17.0630834 41.0828658,18.8006713 C41.0828658,20.0442187 41.7552357,21.0619082 43.4259501,21.0619082 C45.1114128,21.0619082 46.3317377,20.1580967 46.3317377,18.0969055 L46.3317377,18.0969055 Z" id="Fill-370" fill="#FFFFFF"></path>
                <path d="M38.689108,15.9969958 C38.500973,17.5379545 38.1678133,19.1001704 37.9076387,20.643976 L37.844864,20.9802956 L39.3401118,20.9802956 C39.8789909,17.9984011 40.0599409,17.1490612 41.1893181,17.4479909 L41.7325461,16.0372327 C40.944648,15.7470337 40.4377235,16.1615495 39.9788254,16.7506781 C40.020234,16.4855323 40.0981351,16.2294966 40.0794161,15.9969958 L38.689108,15.9969958" id="Fill-371" fill="#FFFFFF"></path>
                <polyline id="Fill-372" fill="#FFFFFF" points="20.6752294 20.9802956 19.1862213 20.9802956 20.0711175 16.299152 18.033209 20.9802956 16.6756117 20.9802956 16.4273492 16.3264827 15.5394276 20.9802956 14.1884482 20.9802956 15.3390024 14.8910509 17.6665821 14.8910509 17.7894844 18.6607912 19.427866 14.8910509 21.8490405 14.8910509 20.6752294 20.9802956"></polyline>
            </g>
        </g>
    </g>
</svg>